<?xml version="1.0" encoding="UTF-8" standalone="no"?>
<!-- Created with Inkscape (http://www.inkscape.org/) -->

<svg
   xmlns:dc="http://purl.org/dc/elements/1.1/"
   xmlns:cc="http://creativecommons.org/ns#"
   xmlns:rdf="http://www.w3.org/1999/02/22-rdf-syntax-ns#"
   xmlns:svg="http://www.w3.org/2000/svg"
   xmlns="http://www.w3.org/2000/svg"
   xmlns:sodipodi="http://sodipodi.sourceforge.net/DTD/sodipodi-0.dtd"
   xmlns:inkscape="http://www.inkscape.org/namespaces/inkscape"
   version="1.1"
   id="svg3756"
   width="498.13333"
   height="408.53333"
   viewBox="0 0 498.13333 408.53333"
   sodipodi:docname="octavialogo.svg"
   inkscape:version="0.92.5 (2060ec1f9f, 2020-04-08)">
  <metadata
     id="metadata3762">
    <rdf:RDF>
      <cc:Work
         rdf:about="">
        <dc:format>image/svg+xml</dc:format>
        <dc:type
           rdf:resource="http://purl.org/dc/dcmitype/StillImage" />
        <dc:title></dc:title>
      </cc:Work>
    </rdf:RDF>
  </metadata>
  <defs
     id="defs3760" />
  <sodipodi:namedview
     pagecolor="#ffffff"
     bordercolor="#666666"
     borderopacity="1"
     objecttolerance="10"
     gridtolerance="10"
     guidetolerance="10"
     inkscape:pageopacity="0"
     inkscape:pageshadow="2"
     inkscape:window-width="2915"
     inkscape:window-height="1671"
     id="namedview3758"
     showgrid="false"
     inkscape:zoom="1.6339152"
     inkscape:cx="247.65006"
     inkscape:cy="115.05675"
     inkscape:window-x="0"
     inkscape:window-y="0"
     inkscape:window-maximized="0"
     inkscape:current-layer="g3766" />
  <g
     id="g3766"
     transform="translate(-18.972832,63.03877)">
    <path
       style="fill:#9e0000;stroke-width:1.0666666"
       d="m 210.45243,320.24946 c -4.5176,-1.51833 -11.44528,-8.2681 -13.47714,-13.13103 -3.33935,-7.9922 -1.05955,-16.97099 6.14651,-24.20743 2.77497,-2.78667 5.77719,-5.06667 6.6716,-5.06667 0.89441,0 2.47727,-1.29766 3.51746,-2.88369 1.67791,-2.55839 1.9296,-6.34862 2.23115,-33.6 l 0.3399,-30.71631 h 22.74193 c 20.79737,0 22.95725,-0.17426 25.26011,-2.03795 l 2.51817,-2.03796 0.31112,-30.76204 c 0.28162,-27.84554 0.12993,-31.11601 -1.6,-34.49539 -1.84653,-3.60713 -2.14003,-3.74416 -8.68317,-4.05363 -4.80419,-0.22723 -7.51631,0.16736 -9.33333,1.35792 -2.33756,1.53163 -2.5616,2.39819 -2.56484,9.9203 -0.002,4.53314 -0.31417,15.73083 -0.69381,24.88376 l -0.69024,16.6417 -30.36473,0.58826 c -25.41588,0.4924 -30.63331,0.85687 -32.01273,2.23628 -2.22035,2.22035 -3.09055,17.13821 -1.31376,22.52193 0.96192,2.91466 2.26893,4.37628 4.89425,5.47321 2.02666,0.84678 5.44945,3.97021 7.88321,7.19369 4.13661,5.47891 4.30136,6.00398 4.30136,13.70911 0,9.08569 -1.68237,12.55569 -8.9024,18.36179 -3.84912,3.09534 -4.65107,3.29902 -12.98941,3.29902 -10.29883,0 -12.57182,-1.18169 -18.32155,-9.52512 -3.10443,-4.50483 -3.51997,-5.93298 -3.51997,-12.09763 0,-8.64129 3.11965,-14.61838 10.15697,-19.46018 7.31432,-5.03238 7.97636,-7.09291 7.97636,-24.82558 v -15.3478 l 31.08279,-0.69861 c 20.53626,-0.46157 31.57497,-1.10707 32.53334,-1.90245 1.96065,-1.62719 2.11603,-38.25048 0.17054,-40.19597 -1.81339,-1.81339 -18.3595,-1.72094 -19.87994,0.11106 -0.63497,0.76509 -1.29374,5.92509 -1.46394,11.46667 l -0.30946,10.0756 -39.73333,0.27965 -39.73333,0.27965 v -27.08237 c 0,-23.86937 -0.20889,-27.25606 -1.7607,-28.54632 -1.31589,-1.0941 -6.70819,-1.548 -21.345,-1.7967 l -19.58433,-0.33275 -1.85498,3.4576 c -2.88458,5.37672 -10.03116,12.8394 -13.82073,14.43204 -4.40588,1.85166 -14.31843,1.85462 -18.73519,0.005 -4.85258,-2.03147 -11.09937,-9.36498 -12.54253,-14.72446 -2.34765,-8.718485 0.26087,-16.231905 8.0007,-23.044786 3.70199,-3.25862 6.0127,-4.39641 9.90243,-4.87595 8.90065,-1.0973 13.9766,0.56509 19.48018,6.379831 2.6908,2.84294 5.71858,6.36898 6.72841,7.83564 l 1.83603,2.66667 25.31452,0.53333 25.31452,0.53334 0.5888,25.066655 c 0.44211,18.82229 0.97651,25.86382 2.14522,28.26667 l 1.55641,3.2 11.18812,0.34561 c 14.04065,0.43373 45.1064,-0.82385 46.84148,-1.89619 1.96809,-1.21634 3.16633,-8.09051 2.17581,-12.48233 -0.61855,-2.74257 -3.08426,-6.14474 -8.31039,-11.46666 -10.21419,-10.40141 -11.21102,-12.67007 -11.29262,-25.70043 -0.0755,-12.063325 1.00645,-16.086585 6.34591,-23.596646 2.241,-3.15202 3.69468,-6.45686 3.69482,-8.39994 1.9e-4,-2.84456 -3.29951,-14.391099 -5.33544,-18.670071 -0.62313,-1.30968 -3.98872,-1.6531 -18.54775,-1.89262 l -17.78648,-0.29261 -1.83194,3.41746 c -2.86184,5.338702 -10.01857,12.803651 -13.79769,14.391891 -4.40589,1.85166 -14.31843,1.85463 -18.73519,0.005 -4.85257,-2.03148 -11.09937,-9.364979 -12.54253,-14.724461 -2.34764,-8.7185 0.26087,-16.23191 8.0007,-23.044788 5.44165,-4.789937 11.44197,-6.183588 19.73317,-4.583283 4.67987,0.903276 8.47742,4.112367 16.83587,14.227061 l 2.39294,2.89627 h 16.8604 c 11.69141,0 17.2528,-0.39241 18.14038,-1.28 0.73053,-0.73052 1.28795,-4.27923 1.29852,-8.266665 0.073,-27.5100344 18.32007,-55.252774 45.31481,-68.896112 13.01571,-6.57824 18.83367,-7.931 34.13334,-7.9365 16.57406,-0.006 24.68372,1.37826 34.41433,5.87408 20.19588,9.33107 36.6078,26.409854 44.78793,46.6078226 2.21714,5.4744624 2.80528,9.0346054 3.22098,19.4973764 0.27971,7.039998 0.98768,13.399998 1.57327,14.133338 0.77139,0.96601 5.73227,1.33333 18.00782,1.33333 h 16.94311 l 2.39294,-2.89574 c 8.35845,-10.114694 12.156,-13.323785 16.83587,-14.227061 8.2912,-1.600305 14.29152,-0.206654 19.73317,4.583283 7.66316,6.745378 9.83079,12.938838 7.81616,22.332708 -1.45074,6.764552 -7.83842,14.189351 -13.57915,15.783921 -4.94431,1.37335 -11.34336,1.37479 -16.27954,0.003 -3.75992,-1.04391 -13.73356,-10.292439 -13.73356,-12.734619 0,-0.611792 -0.96,-2.072362 -2.13334,-3.245692 -1.95418,-1.95419 -3.55555,-2.13333 -19.06939,-2.13333 -12.28282,0 -17.22192,0.36633 -17.97651,1.33333 -0.99154,1.27063 -4.09298,11.887892 -5.2975,18.135081 -0.42246,2.19108 0.54638,4.77599 3.82208,10.19745 2.4134,3.99431 4.38799,7.889101 4.38799,8.655091 0,0.766 0.82589,3.71806 1.83531,6.56014 1.72243,4.849605 1.72569,5.514455 0.0531,10.809825 -0.98017,3.10333 -2.05635,6.96698 -2.39151,8.58591 -0.35138,1.69726 -4.43843,6.98387 -9.65317,12.48641 l -9.04375,9.5429 v 5.9136 c 0,9.08695 1.15329,9.78512 17.75268,10.74685 13.35578,0.77379 39.12101,0.0545 42.34361,-1.18215 0.88299,-0.33884 1.95827,-1.41894 2.38951,-2.40025 0.43126,-0.9813 1.00273,-13.4242 1.26996,-27.65086 l 0.48586,-25.866665 h 24.95291 24.95292 l 2.39293,-2.89574 c 8.35846,-10.114691 12.156,-13.323781 16.83588,-14.227051 8.2912,-1.60031 14.29152,-0.20666 19.73317,4.58327 7.66316,6.745391 9.83078,12.938841 7.81616,22.332716 -2.74789,12.81297 -15.83385,19.7909 -29.67188,15.8222 -4.40963,-1.26466 -11.19624,-7.5873 -14.02374,-13.065 -1.18999,-2.30537 -3.10365,-4.2459 -4.54352,-4.60728 -1.36818,-0.3434 -10.41016,-0.47108 -20.0933,-0.28374 -12.94566,0.25047 -18.07167,0.72811 -19.3661,1.80456 -1.55137,1.29012 -1.76038,4.678 -1.76038,28.53333 v 27.0694 h -40 -40 V 150.9706 c 0,-12.85832 -0.87189,-13.92715 -11.36115,-13.92715 -10.8043,0 -11.39842,1.33518 -10.87133,24.43133 0.31152,13.65041 0.64836,16.3118 2.2696,17.93236 1.71938,1.71865 4.84497,1.93836 32.26666,2.2681 l 30.36288,0.3651 v 15.4212 c 0,17.81342 0.65653,19.86281 7.97637,24.89899 6.78693,4.66954 10.15697,10.87629 10.15697,18.70654 0,12.06521 -7.03632,21.1027 -17.44218,22.40283 -11.78966,1.47302 -19.52926,-2.1537 -24.22066,-11.34962 -2.45188,-4.80609 -2.76147,-14.29642 -0.63214,-19.37774 2.11371,-5.04401 6.85709,-10.23772 10.88839,-11.92209 2.69018,-1.12404 3.83965,-2.48487 4.79645,-5.6784 1.75157,-5.84618 0.93405,-19.96515 -1.28448,-22.18367 -1.47424,-1.47424 -6.09212,-1.80634 -32.13247,-2.31083 l -30.41082,-0.58916 -0.77928,-24.93915 c -0.90718,-29.03241 -0.50073,-28.07579 -11.92889,-28.07579 -10.66481,0 -10.45392,-0.75953 -10.45392,37.6498 v 31.87322 l 2.51816,2.0385 c 2.265,1.83354 4.40989,2.03968 21.33334,2.05024 10.34834,0.006 20.61517,0.30926 22.81517,0.67289 l 4,0.66116 0.006,27.86043 c 0.003,15.6317 0.48312,29.57847 1.09308,31.77457 0.81926,2.94959 2.22234,4.5794 5.69381,6.61382 7.60048,4.45443 13.47337,13.5811 13.47337,20.93872 0,7.59282 -6.98003,17.92005 -14.0142,20.73457 -4.81105,1.925 -12.25242,2.16519 -16.58302,0.53525 -4.27163,-1.60773 -10.91424,-8.2654 -13.23983,-13.26982 -4.32188,-9.30021 -1.58282,-16.95575 9.87418,-27.59775 l 7.5518,-7.01462 -0.50323,-23.76048 c -0.27678,-13.06826 -0.84878,-24.55654 -1.27112,-25.52949 -1.83394,-4.22498 -5.90916,-4.631 -46.48124,-4.631 -21.41334,0 -40.24727,0.36762 -41.85318,0.81694 -5.96856,1.66993 -6.56122,4.17468 -7.03742,29.74162 l -0.43401,23.30286 8.65775,8.1384 c 6.66123,6.26166 8.92803,9.14216 9.82982,12.49115 2.35518,8.74647 -1.68768,19.15906 -9.55595,24.61176 -4.91892,3.40882 -14.24774,4.5556 -20.3567,2.5024 z m 13.83686,-8.28226 c 5.17565,-2.64041 7.44616,-6.80548 7.44616,-13.65938 0,-5.87231 -2.38269,-9.83446 -7.50788,-12.4848 -12.08284,-6.24828 -25.31957,8.72026 -18.13344,20.50592 2.12345,3.4826 8.63351,7.64972 12.08382,7.73491 1.05003,0.0259 3.80014,-0.91756 6.11134,-2.09665 z m 104.54096,-0.004 c 4.54888,-2.32029 8.5052,-8.51581 8.5052,-13.31861 0,-5.11399 -3.80987,-10.78559 -8.50792,-12.66537 -5.36212,-2.1455 -7.80723,-2.17804 -11.71753,-0.15594 -5.1252,2.65034 -7.50788,6.61249 -7.50788,12.4848 0,6.7514 2.24346,10.97993 7.21934,13.60715 5.07496,2.67953 6.83734,2.68662 12.00879,0.0483 z M 179.13268,255.37647 c 4.24159,-1.60258 8.61967,-6.07664 9.98015,-10.19893 2.25256,-6.82533 -4.09561,-15.92458 -12.6701,-18.1609 -3.47801,-0.90709 -12.22188,3.39988 -14.4049,7.09543 -4.18606,7.08642 -0.83913,16.72159 7.05299,20.30419 5.27589,2.39497 6.04883,2.46888 10.04186,0.96021 z m 193.48711,-1.04183 c 7.85794,-4.00882 10.67653,-12.82396 6.36259,-19.89902 -4.38245,-7.18742 -12.16853,-9.50806 -19.00654,-5.6649 -10.36213,5.82385 -10.07794,19.92101 0.5143,25.51107 5.15251,2.71925 6.88825,2.72681 12.12965,0.0528 z M 231.0158,122.86683 c 5.29388,-2.42361 6.1184,-3.2936 9.35776,-9.87367 4.38959,-8.91653 4.69822,-15.715295 1.03874,-22.882165 -5.2841,-10.348591 -11.07413,-13.879011 -22.70102,-13.841751 -13.14922,0.0421 -20.95091,5.85117 -24.96635,18.589591 -1.60159,5.08084 -1.60456,5.997805 -0.0369,11.390315 2.39657,8.2439 6.88364,13.95791 13.66309,17.39907 4.79298,2.43286 6.66163,2.81144 11.76849,2.38424 3.33894,-0.2793 8.68324,-1.70384 11.87621,-3.16563 z m 102.58632,0.97491 c 6.23105,-2.93842 8.92143,-5.65329 12.70734,-12.82295 3.56574,-6.75272 3.61439,-13.234335 0.15294,-20.374465 -3.43776,-7.091261 -5.58648,-9.476491 -10.95112,-12.156511 -5.81868,-2.90683 -19.75177,-3.18912 -23.80515,-0.48229 -5.6791,3.79247 -9.89269,8.623151 -12.38263,14.196121 -2.30508,5.15918 -2.47616,6.41121 -1.49877,10.968555 1.59505,7.43747 4.67208,12.83752 9.83152,17.25379 7.57945,6.48774 16.84709,7.70853 25.94587,3.41775 z M 72.82263,113.56719 c 7.20613,-3.67628 9.36587,-11.2449 5.41737,-18.984605 -3.18734,-6.24771 -11.77758,-9.422981 -17.508,-6.47163 -9.87111,5.08393 -11.73628,16.757745 -3.92543,24.568595 3.73914,3.73913 9.77136,4.07346 16.01606,0.88764 z m 410.8416,-0.49997 c 8.85235,-6.01533 7.55745,-19.443865 -2.37,-24.577535 -12.20729,-6.312641 -25.26046,7.75015 -18.09788,19.497725 4.64704,7.62176 13.49534,9.81777 20.46788,5.07981 z M 421.79756,59.733885 c 8.85235,-6.015332 7.55745,-19.443852 -2.36999,-24.577532 -12.2073,-6.312645 -25.26046,7.75015 -18.09788,19.49772 4.64704,7.621762 13.49534,9.817782 20.46787,5.079812 z m -286.0416,-0.56669 c 7.20612,-3.676282 9.36587,-11.244902 5.41737,-18.984612 -3.18734,-6.2477 -11.77758,-9.422979 -17.508,-6.47163 -9.8711,5.08394 -11.73628,16.75775 -3.92543,24.568602 3.73914,3.73913 9.77136,4.07346 16.01606,0.88764 z m 77.9437,-18.172632 c 9.68508,-4.94096 16.02734,-24.559879 11.05067,-34.1837094 -1.90362,-3.681184 -7.36238,-7.35673102 -10.93452,-7.36253802 -8.73811,-0.01421 -17.91651,12.21718742 -19.11901,25.47851442 -0.68832,7.59096 1.49274,13.154503 6.30779,16.090153 4.46637,2.72307 7.32336,2.71802 12.69507,-0.0224 z m 33.96586,-8.447892 c 2.81689,-1.437072 4.81897,-3.558591 6.3575,-6.736774 2.77591,-5.734249 2.8134,-8.271234 0.19799,-13.397864 -4.86404,-9.5342894 -17.27757,-8.5222224 -24.42085,1.991012 -2.03635,2.997037 -2.40188,4.585358 -1.90656,8.284295 0.83101,6.20567 2.32447,8.661478 6.32584,10.402043 4.73008,2.05755 8.66006,1.89893 13.44608,-0.542712 z m 4.4909,-30.9307444 c 12.79579,-3.954554 21.5702,-11.262997 26.83109,-22.3483126 l 3.24775,-6.843388 -2.58324,-4.88995 c -3.85816,-7.3033 -9.65415,-9.97489 -20.4174,-9.41113 -6.77857,0.35506 -9.60696,1.10983 -16,4.26972 -4.27121,2.11114 -10.08656,6.0623 -12.923,8.78037 -6.20714,5.948118 -10.71883,14.985238 -9.67997,19.3894446 1.08587,4.603476 4.58039,9.80940298 7.73466,11.522638 4.12146,2.238558 15.77176,2.008692 23.79011,-0.469392 z"
       id="path3768"
       inkscape:connector-curvature="0" />
  </g>
</svg>
